name,quantity,use
mouse,1,mouse
pink,1,-
pink,1,-
yellow,1,-
blue,1,-
pink,1,-
flash,3,-
black,3,-
bb,2,-
pink,1,-
by,1,-
flash,1,-
bb,1,-
black,1,-
pink,1,-
jason,2,-
grayson,12,-
damian,1,-
wade,1,-
tim,3,-
flash,7,-
damian,1,-
damian,2,
-tim,1,-
gordon,1,-
flash,8,-
pink,1,-
bb,1,-
black,1,-	
flash,1,-
grayson,1,-
sean,1,-
by,1,-
pink,1,-
flash,3,-
pink,1,-
bb,1,-
bb,1,-
pink,1,-
flash,1,-
choc,1
late,1
pink,7,-
wireless_lan_usb, 1,-
cisco_lan,1,-
bluetooth-dongle,1,-